tutorial1.1/simulation/qsim/light.msim.vcd
$comment
	File created using the following command:
		vcd file light.msim.vcd -direction
$end
$date
	Wed Jan 04 18:58:56 2017
$end
$version
	ModelSim Version 10.1d
$end
$timescale
	1ps
$end
$scope module light_vlg_vec_tst $end
$var reg 1 ! x1 $end
$var reg 1 " x2 $end
$var wire 1 # f $end
$var wire 1 $ sampler $end
$scope module i1 $end
$var wire 1 % gnd $end
$var wire 1 & vcc $end
$var wire 1 ' unknown $end
$var tri1 1 ( devclrn $end
$var tri1 1 ) devpor $end
$var tri1 1 * devoe $end
$var wire 1 + x1~combout $end
$var wire 1 , x2~combout $end
$var wire 1 - inst3~0_combout $end
$upscope $end
$upscope $end
$enddefinitions $end
#0
$dumpvars
0!
0"
x#
x$
0%
1&
x'
1(
1)
1*
0+
0,
x-
$end
#631
0-
#5506
0#
#50000
1"
0$
#50999
1,
#51498
1-
#56373
1#
#100000
1!
0"
1$
#100999
0,
1+
#160000
1"
0$
#160999
1,
#161498
0-
#166373
0#
